....................
----------------------------------------------------------------------
Ran 20 tests in 0.264s

OK
Name             Stmts   Miss Branch BrPart  Cover   Missing
------------------------------------------------------------
Collatz.py          46      2     30      2    95%   61, 66, 60->61, 65->66
TestCollatz.py      81      0      0      0   100%
------------------------------------------------------------
TOTAL              127      2     30      2    97%
