....................
----------------------------------------------------------------------
Ran 20 tests in 0.008s

OK
Name             Stmts   Miss Branch BrPart  Cover   Missing
------------------------------------------------------------
Collatz.py          64      5     28      3    91%   74, 88-90, 145, 73->74, 87->88, 144->145
TestCollatz.py      88      0      0      0   100%
------------------------------------------------------------
TOTAL              152      5     28      3    96%
