...................
----------------------------------------------------------------------
Ran 19 tests in 0.945s

OK
Name             Stmts   Miss Branch BrPart  Cover   Missing
------------------------------------------------------------
Collatz.py          71      1     34      1    98%   147, 146->147
TestCollatz.py      83      0      0      0   100%
------------------------------------------------------------
TOTAL              154      1     34      1    99%
