.......
----------------------------------------------------------------------
Ran 7 tests in 0.062s

OK
Name             Stmts   Miss Branch BrPart  Cover   Missing
------------------------------------------------------------
Collatz.py          51      0     28      2    97%   55->58, 58->61
TestCollatz.py      48      0      0      0   100%
------------------------------------------------------------
TOTAL               99      0     28      2    98%
