..................
----------------------------------------------------------------------
Ran 18 tests in 0.596s

OK
Name             Stmts   Miss Branch BrPart  Cover   Missing
------------------------------------------------------------
Collatz.py          40      1     18      1    97%   190, 189->190
TestCollatz.py      75      0      0      0   100%
------------------------------------------------------------
TOTAL              115      1     18      1    98%
